4.4 Capturing trend changes in the past | Outbreak Monitoring using ASMODEE: an example of automated data infrastructure
…
# add changepoint variables to main data
x <- x %>%
  bind_cols(df_changepoints)
x
## # A tibble: 31 x 23
##    date         day change_5 change_6 change_7 change_8 change_9 change_10
##    <date>     <int> <chr>    <chr>    <chr>    <chr>    <chr>    <chr>    
##  1 2021-02-04     0 before   before   before   before   before   before   
##  2 2021-02-05     1 before   before   before   before   before   before   
##  3 2021-02-06     2 before   before   before   before   before   before   
##  4 2021-02-07     3 before   before   before   before   before   before   
##  5 2021-02-08     4 before   before   before   before   before   before   
##  6 2021-02-09     5 before   before   before   before   before   before   
##  7 2021-02-10     6 after    before   before   before   before   before   
##  8 2021-02-11     7 after    after    before   before   before   before   
##  9 2021-02-12     8 after    after    after    before   before   before   
## 10 2021-02-13     9 after    after    after    after    before   before   
## # … with 21 more rows, and 15 more variables: change_11 <chr>, change_12 <chr>,
## #   change_13 <chr>, change_14 <chr>, change_15 <chr>, change_16 <chr>,
## #   change_17 <chr>, change_18 <chr>, change_19 <chr>, change_20 <chr>,
## #   change_21 <chr>, change_22 <chr>, change_23 <chr>, change_24 <chr>,
## #   change_25 <chr>
…
