Assessing Epidemiological Level of Risk (ELR)
…
x_all <- all_df %>%
  bind_rows()

x <- x_all %>%
  filter(last_day == 0)

1.4 Load VOI data

dat_voi <- find_latest("proportions_voi", where = here::here("data")) %>%
  rio::import() %>%
  pivot_wider(names_from = quantile, values_from = value)
## Found file: 'proportions_voi_2021-06-09.rds'

dat_voi
## # A tibble: 374,088 x 6
##    report_country date       variant          mid       lower     upper
##    <chr>          <date>     <chr>          <dbl>       <dbl>     <dbl>
##  1 South Africa   2020-09-01 Other     0.891      0.872       0.908    
##  2 South Africa   2020-09-01 B.1.1.7   0.00000132 0.000000143 0.0000121
##  3 South Africa   2020-09-01 B.1.351   0.109      0.0916      0.128    
##  4 South Africa   2020-09-01 P.1       0          0           0        
##  5 South Africa   2020-09-01 B.1.617.2 0          0           0        
##  6 South Africa   2020-09-01 B.1.617.1 0          0           0        
##  7 South Africa   2020-09-01 P.2       0          0           0        
##  8 South Africa   2020-09-01 P.3       0          0           0        
##  9 South Africa   2020-09-01 B.1.525   0          0           0        
## 10 South Africa   2020-09-01 B.1.526   0          0           0        
## # ... with 374,078 more rows
…
