Using ASMODEE to detect trend changes in COVID-19
…
We use future to handle parallelisation on separate R processes (rather than multithreading, not supported on windows), which should work across different platforms:

plan("multisession", workers = params$n_cores)

1.4 Load the data

dat <- load_final_data()
## Found file: 'final_dat_2021-08-27.rds'
data_stamp <- get_timestamp(dat)
data_stamp
## [1] "2021-08-27"
elr_extras <- dat$elr_extras
dat <- dat$trendbreaker
dat
## # A tibble: 145,676 x 130
## # Groups:   report_country [241]
##    who_region report_country iso3  population report_date date       cases deaths tests classification Rt_mean Rt_median Rt_lower Rt_upper mob_driving
##    <chr>      <chr>          <chr>      <dbl> <date>      <date>     <dbl>  <dbl> <dbl> <chr>            <dbl>     <dbl>    <dbl>    <dbl>       <dbl>
##  1 EMRO       Afghanistan    AFG     38928346 2020-01-04  2020-01-04     0      0    NA <NA>                NA        NA       NA       NA          NA
##  2 EMRO       Afghanistan    AFG     38928346 2020-01-05  2020-01-05     0      0    NA <NA>                NA        NA       NA       NA          NA
##  3 EMRO       Afghanistan    AFG     38928346 2020-01-06  2020-01-06     0      0    NA <NA>                NA        NA       NA       NA          NA
##  4 EMRO       Afghanistan    AFG     38928346 2020-01-07  2020-01-07     0      0    NA <NA>                NA        NA       NA       NA          NA
##  5 EMRO       Afghanistan    AFG     38928346 2020-01-08  2020-01-08     0      0    NA <NA>                NA        NA       NA       NA          NA
##  6 EMRO       Afghanistan    AFG     38928346 2020-01-09  2020-01-09     0      0    NA <NA>                NA        NA       NA       NA          NA
##  7 EMRO       Afghanistan    AFG     38928346 2020-01-10  2020-01-10     0      0    NA <NA>                NA        NA       NA       NA          NA
##  8 EMRO       Afghanistan    AFG     38928346 2020-01-11  2020-01-11     0      0    NA <NA>                NA        NA       NA       NA          NA
##  9 EMRO       Afghanistan    AFG     38928346 2020-01-12  2020-01-12     0      0    NA <NA>                NA        NA       NA       NA          NA
## 10 EMRO       Afghanistan    AFG     38928346 2020-01-13  2020-01-13     0      0    NA <NA>                NA        NA       NA       NA          NA
## # ... with 145,666 more rows, and 115 more variables: mob_transit <dbl>, mob_walking <dbl>, mob_grocery and pharmacy <dbl>, mob_parks <dbl>,
## #   mob_residential <dbl>, mob_retail and recreation <dbl>, mob_transit stations <dbl>, mob_workplaces <dbl>, jurisdiction <chr>, stayhome_level <dbl>,
## #   stayhome_scope <chr>, phsm_change <chr>, earliest_lockdown <date>, day_num <dbl>, case_new_7d <dbl>, death_new_7d <dbl>, case_new_7d_100k <dbl>,
## #   death_new_7d_100k <dbl>, cases_pc <dbl>, deaths_pc <dbl>, tests_pc <dbl>, fatalities <dbl>, positive_tests <dbl>, car_pc <dbl>, cdr_pc <dbl>,
## #   Rt_mean_lag1 <dbl>, Rt_median_lag1 <dbl>, Rt_lower_lag1 <dbl>, Rt_upper_lag1 <dbl>, mob_driving_lag1 <dbl>, mob_transit_lag1 <dbl>,
## #   mob_walking_lag1 <dbl>, mob_grocery and pharmacy_lag1 <dbl>, mob_parks_lag1 <dbl>, mob_residential_lag1 <dbl>, mob_retail and recreation_lag1 <dbl>,
## #   mob_transit stations_lag1 <dbl>, mob_workplaces_lag1 <dbl>, jurisdiction_lag1 <dbl>, stayhome_level_lag1 <dbl>, stayhome_scope_lag1 <dbl>, ...
…
